{
  "dependencies": {
    "secrets1": {
      "type": "secrets",
      "connectionId": "appsolarfocusconnectionsstring"
    },
    "storage1": {
      "type": "storage",
      "connectionId": "appsolarfocus"
    },
    "mssql1": {
      "type": "mssql",
      "connectionId": "ConnectionStrings:mysolarfocusTestConString"
    }
  }
}